<?xml version="1.0" encoding="utf-8"?>
<!-- Generator: Adobe Illustrator 19.0.0, SVG Export Plug-In . SVG Version: 6.00 Build 0)  -->
<svg version="1.0" id="Layer_2" xmlns="http://www.w3.org/2000/svg" xmlns:xlink="http://www.w3.org/1999/xlink" x="0px" y="0px"
	 width="34px" height="34px" viewBox="0 0 200 200" style="enable-background:new 0 0 200 200;" xml:space="preserve">
<style type="text/css">
	.st0{fill:#0067c0;}
	.st1{clip-path:url(#SVGID_2_);}
	.st2{fill:#E6E6E6;}
	.st3{fill:#FFFFFF;}
</style>
<g>
	<rect x="0" class="st0" width="200" height="200"/>
	<g>
		<defs>
			<rect id="SVGID_1_" x="0" width="200" height="200"/>
		</defs>
		<clipPath id="SVGID_2_">
			<use xlink:href="#SVGID_1_"  style="overflow:visible;"/>
		</clipPath>
		<g class="st1">
			<polygon class="st2" points="28.3,-9.3 28.3,26.8 155.8,101.8 155.8,36.8 68.5,-13.8 			"/>
			<polygon class="st2" points="28.3,193 108.3,147 149.3,167.1 155.8,183.3 74.3,231.5 -13.2,231.5 -3.4,174.8 			"/>
			<polygon class="st3" points="28.3,46.5 28.3,109.8 155.8,183.3 155.8,120.2 			"/>
			<polygon class="st3" points="28.3,26.8 -6.5,48.2 -6.5,-7.3 28.3,-7.3 			"/>
		</g>
	</g>
</g>
</svg>
